[
    {
        "key": "video.youtube.url",
        "value": "https://www.youtube.com/watch?v=FYpyquAvYLM"
    },
    {
        "key": "tinymce.api.key",
        "value": "vt5yw6hmbhlads87emdloz5wicx7z6lfn6iqghzqpldlg180"
    },
    {
        "key": "quick_connect.registration.url",
        "value": "https://www.google.com/"
    },
    {
        "key": "quick_connect.program.url",
        "value": "https://www.google.com/"
    },
    {
        "key": "quick_connect.abstract_submission.url",
        "value": "https://www.google.com/"
    },
    {
        "key": "quick_connect.accommodation.url",
        "value": "https://www.google.com/"
    },
    {
        "key": "important_datas.text",
        "value": "test"
    }
]